<?xml version="1.0" encoding="UTF-8" standalone="no"?>
<!-- Created with Inkscape (http://www.inkscape.org/) -->

<svg
   xmlns:dc="http://purl.org/dc/elements/1.1/"
   xmlns:cc="http://creativecommons.org/ns#"
   xmlns:rdf="http://www.w3.org/1999/02/22-rdf-syntax-ns#"
   xmlns:svg="http://www.w3.org/2000/svg"
   xmlns="http://www.w3.org/2000/svg"
   xmlns:sodipodi="http://sodipodi.sourceforge.net/DTD/sodipodi-0.dtd"
   xmlns:inkscape="http://www.inkscape.org/namespaces/inkscape"
   width="165.34122mm"
   height="113.8786mm"
   viewBox="0 0 585.85471 403.50685"
   id="svg5016"
   version="1.1"
   inkscape:version="0.91 r13725"
   sodipodi:docname="ambiente.svg">
  <defs
     id="defs5018" />
  <sodipodi:namedview
     id="base"
     pagecolor="#ffffff"
     bordercolor="#666666"
     borderopacity="1.0"
     inkscape:pageopacity="0.0"
     inkscape:pageshadow="2"
     inkscape:zoom="0.49497475"
     inkscape:cx="299.27724"
     inkscape:cy="163.12213"
     inkscape:document-units="px"
     inkscape:current-layer="layer1"
     showgrid="false"
     fit-margin-top="0"
     fit-margin-left="0"
     fit-margin-right="0"
     fit-margin-bottom="0"
     inkscape:window-width="1018"
     inkscape:window-height="577"
     inkscape:window-x="0"
     inkscape:window-y="17"
     inkscape:window-maximized="0" />
  <metadata
     id="metadata5021">
    <rdf:RDF>
      <cc:Work
         rdf:about="">
        <dc:format>image/svg+xml</dc:format>
        <dc:type
           rdf:resource="http://purl.org/dc/dcmitype/StillImage" />
        <dc:title></dc:title>
      </cc:Work>
    </rdf:RDF>
  </metadata>
  <g
     inkscape:label="Layer 1"
     inkscape:groupmode="layer"
     id="layer1"
     transform="translate(-75.722763,-89.94696)">
    <rect
       style="fill:#ffffff;stroke:#000000;stroke-width:1.5;stroke-miterlimit:4;stroke-dasharray:none;stroke-dashoffset:0"
       id="rect5024"
       width="256.57874"
       height="154.55334"
       x="124.24876"
       y="90.69696" />
    <rect
       y="90.69696"
       x="404.24875"
       height="154.55334"
       width="256.57874"
       id="rect5029"
       style="fill:#ffffff;stroke:#000000;stroke-width:1.5;stroke-miterlimit:4;stroke-dasharray:none;stroke-dashoffset:0" />
    <text
       xml:space="preserve"
       style="font-style:normal;font-weight:normal;font-size:17.5px;line-height:125%;font-family:sans-serif;text-align:center;letter-spacing:0px;word-spacing:0px;text-anchor:middle;fill:#000000;fill-opacity:1;stroke:none;stroke-width:1px;stroke-linecap:butt;stroke-linejoin:miter;stroke-opacity:1"
       x="-167.99646"
       y="89.018661"
       id="text5033"
       sodipodi:linespacing="125%"
       transform="matrix(0,-1,1,0,0,0)"><tspan
         sodipodi:role="line"
         id="tspan5035"
         x="-165.21082"
         y="89.018661">Tasa de </tspan><tspan
         sodipodi:role="line"
         x="-167.99646"
         y="110.89366"
         id="tspan5037">fotosíntesis</tspan></text>
    <text
       sodipodi:linespacing="125%"
       id="text5045"
       y="269.81369"
       x="251.66281"
       style="font-style:normal;font-weight:normal;font-size:17.5px;line-height:125%;font-family:sans-serif;text-align:center;letter-spacing:0px;word-spacing:0px;text-anchor:middle;fill:#000000;fill-opacity:1;stroke:none;stroke-width:1px;stroke-linecap:butt;stroke-linejoin:miter;stroke-opacity:1"
       xml:space="preserve"><tspan
         id="tspan5049"
         y="269.81369"
         x="251.66281"
         sodipodi:role="line">Cantidad de luz (fotones)</tspan></text>
    <text
       xml:space="preserve"
       style="font-style:normal;font-weight:normal;font-size:17.5px;line-height:125%;font-family:sans-serif;text-align:center;letter-spacing:0px;word-spacing:0px;text-anchor:middle;fill:#000000;fill-opacity:1;stroke:none;stroke-width:1px;stroke-linecap:butt;stroke-linejoin:miter;stroke-opacity:1"
       x="531.66284"
       y="269.81369"
       id="text5053"
       sodipodi:linespacing="125%"><tspan
         sodipodi:role="line"
         x="531.66284"
         y="269.81369"
         id="tspan5055">Concentración de CO<tspan
   style="font-size:64.99999762%;baseline-shift:sub"
   id="tspan5057">2</tspan></tspan></text>
    <rect
       y="310.69696"
       x="124.24876"
       height="154.55334"
       width="256.57874"
       id="rect5059"
       style="fill:#ffffff;stroke:#000000;stroke-width:1.5;stroke-miterlimit:4;stroke-dasharray:none;stroke-dashoffset:0" />
    <rect
       style="fill:#ffffff;stroke:#000000;stroke-width:1.5;stroke-miterlimit:4;stroke-dasharray:none;stroke-dashoffset:0"
       id="rect5061"
       width="256.57874"
       height="154.55334"
       x="404.24875"
       y="310.69696" />
    <text
       transform="matrix(0,-1,1,0,0,0)"
       sodipodi:linespacing="125%"
       id="text5063"
       y="89.018661"
       x="-387.99646"
       style="font-style:normal;font-weight:normal;font-size:17.5px;line-height:125%;font-family:sans-serif;text-align:center;letter-spacing:0px;word-spacing:0px;text-anchor:middle;fill:#000000;fill-opacity:1;stroke:none;stroke-width:1px;stroke-linecap:butt;stroke-linejoin:miter;stroke-opacity:1"
       xml:space="preserve"><tspan
         y="89.018661"
         x="-385.21082"
         id="tspan5065"
         sodipodi:role="line">Tasa de </tspan><tspan
         id="tspan5067"
         y="110.89366"
         x="-387.99646"
         sodipodi:role="line">fotosíntesis</tspan></text>
    <text
       xml:space="preserve"
       style="font-style:normal;font-weight:normal;font-size:17.5px;line-height:125%;font-family:sans-serif;text-align:center;letter-spacing:0px;word-spacing:0px;text-anchor:middle;fill:#000000;fill-opacity:1;stroke:none;stroke-width:1px;stroke-linecap:butt;stroke-linejoin:miter;stroke-opacity:1"
       x="251.66281"
       y="489.81369"
       id="text5069"
       sodipodi:linespacing="125%"><tspan
         sodipodi:role="line"
         x="251.66281"
         y="489.81369"
         id="tspan5071">Temperatura</tspan></text>
    <text
       sodipodi:linespacing="125%"
       id="text5073"
       y="489.81369"
       x="531.66284"
       style="font-style:normal;font-weight:normal;font-size:17.5px;line-height:125%;font-family:sans-serif;text-align:center;letter-spacing:0px;word-spacing:0px;text-anchor:middle;fill:#000000;fill-opacity:1;stroke:none;stroke-width:1px;stroke-linecap:butt;stroke-linejoin:miter;stroke-opacity:1"
       xml:space="preserve"><tspan
         id="tspan5075"
         y="489.81369"
         x="531.66284"
         sodipodi:role="line">Humedad en la atmosfera</tspan></text>
    <path
       style="fill:none;fill-rule:evenodd;stroke:#000000;stroke-width:1px;stroke-linecap:butt;stroke-linejoin:miter;stroke-opacity:1"
       d="m 152.53303,227.06755 c 0,0 23.78231,-44.16644 40.40611,-62.62945 11.85799,-13.16993 25.43996,-25.66581 41.41625,-33.33504 21.13923,-10.14763 45.42289,-12.26298 68.69037,-15.17259 21.05965,-2.63352 63.63961,-2 63.63961,-2"
       id="path5079"
       inkscape:connector-curvature="0"
       sodipodi:nodetypes="csssc" />
    <path
       sodipodi:nodetypes="csssc"
       inkscape:connector-curvature="0"
       id="path5081"
       d="m 428.53303,227.06755 c 0,0 19.8499,-40.01712 34.40611,-56.62945 11.67911,-13.32882 25.54725,-25.44619 41.41625,-33.33504 21.13406,-10.50623 45.41124,-13.28524 68.69037,-17.17259 22.98099,-3.83757 69.63961,-6 69.63961,-6"
       style="fill:none;fill-rule:evenodd;stroke:#000000;stroke-width:1px;stroke-linecap:butt;stroke-linejoin:miter;stroke-opacity:1" />
    <path
       style="fill:none;fill-rule:evenodd;stroke:#000000;stroke-width:1px;stroke-linecap:butt;stroke-linejoin:miter;stroke-opacity:1"
       d="m 170.71578,444.25035 c 29.07604,-2.23662 54.48007,-103.92188 92.8122,-103.90358 36.21062,0.0173 30.92334,106.05723 71.84267,103.90358"
       id="path5083"
       inkscape:connector-curvature="0"
       sodipodi:nodetypes="csc" />
    <path
       style="fill:none;fill-rule:evenodd;stroke:#000000;stroke-width:1px;stroke-linecap:butt;stroke-linejoin:miter;stroke-opacity:1"
       d="m 428.30468,445.2605 c 0,0 99.11745,-12.06496 140.4112,-37.37564 26.22511,-16.07448 61.61931,-68.69037 61.61931,-68.69037"
       id="path5085"
       inkscape:connector-curvature="0"
       sodipodi:nodetypes="csc" />
  </g>
</svg>
