<?xml version="1.0" encoding="UTF-8" standalone="no"?>
<svg
   xmlns:dc="http://purl.org/dc/elements/1.1/"
   xmlns:cc="http://creativecommons.org/ns#"
   xmlns:rdf="http://www.w3.org/1999/02/22-rdf-syntax-ns#"
   xmlns:svg="http://www.w3.org/2000/svg"
   xmlns="http://www.w3.org/2000/svg"
   xmlns:sodipodi="http://sodipodi.sourceforge.net/DTD/sodipodi-0.dtd"
   xmlns:inkscape="http://www.inkscape.org/namespaces/inkscape"
   width="210mm"
   height="297mm"
   viewBox="0 0 210 297"
   version="1.1"
   id="svg30307"
   inkscape:version="1.0.2 (e86c870879, 2021-01-15, custom)"
   sodipodi:docname="climateChange_vs_LMAchange.svg">
  <defs
     id="defs30301">
    <marker
       style="overflow:visible;"
       id="marker30950"
       refX="0.0"
       refY="0.0"
       orient="auto"
       inkscape:stockid="Arrow1Lend"
       inkscape:isstock="true">
      <path
         transform="scale(0.8) rotate(180) translate(12.5,0)"
         style="fill-rule:evenodd;stroke:#000000;stroke-width:1pt;stroke-opacity:1;fill:#000000;fill-opacity:1"
         d="M 0.0,0.0 L 5.0,-5.0 L -12.5,0.0 L 5.0,5.0 L 0.0,0.0 z "
         id="path30948" />
    </marker>
    <marker
       style="overflow:visible;"
       id="marker30920"
       refX="0.0"
       refY="0.0"
       orient="auto"
       inkscape:stockid="Arrow1Lend"
       inkscape:isstock="true">
      <path
         transform="scale(0.8) rotate(180) translate(12.5,0)"
         style="fill-rule:evenodd;stroke:#000000;stroke-width:1pt;stroke-opacity:1;fill:#000000;fill-opacity:1"
         d="M 0.0,0.0 L 5.0,-5.0 L -12.5,0.0 L 5.0,5.0 L 0.0,0.0 z "
         id="path30918" />
    </marker>
    <marker
       style="overflow:visible;"
       id="Arrow1Lend"
       refX="0.0"
       refY="0.0"
       orient="auto"
       inkscape:stockid="Arrow1Lend"
       inkscape:isstock="true">
      <path
         transform="scale(0.8) rotate(180) translate(12.5,0)"
         style="fill-rule:evenodd;stroke:#000000;stroke-width:1pt;stroke-opacity:1;fill:#000000;fill-opacity:1"
         d="M 0.0,0.0 L 5.0,-5.0 L -12.5,0.0 L 5.0,5.0 L 0.0,0.0 z "
         id="path1102" />
    </marker>
  </defs>
  <sodipodi:namedview
     id="base"
     pagecolor="#ffffff"
     bordercolor="#666666"
     borderopacity="1.0"
     inkscape:pageopacity="0.0"
     inkscape:pageshadow="2"
     inkscape:zoom="0.7"
     inkscape:cx="400.64248"
     inkscape:cy="291.02247"
     inkscape:document-units="mm"
     inkscape:current-layer="layer1"
     inkscape:document-rotation="0"
     showgrid="false"
     inkscape:object-paths="true"
     inkscape:snap-nodes="false"
     inkscape:window-width="1274"
     inkscape:window-height="1001"
     inkscape:window-x="0"
     inkscape:window-y="17"
     inkscape:window-maximized="0" />
  <metadata
     id="metadata30304">
    <rdf:RDF>
      <cc:Work
         rdf:about="">
        <dc:format>image/svg+xml</dc:format>
        <dc:type
           rdf:resource="http://purl.org/dc/dcmitype/StillImage" />
        <dc:title></dc:title>
      </cc:Work>
    </rdf:RDF>
  </metadata>
  <g
     inkscape:label="Layer 1"
     inkscape:groupmode="layer"
     id="layer1">
    <rect
       style="fill:#ffffff;stroke:#000000;stroke-width:0.26499999;stroke-dasharray:none;stroke-miterlimit:4;stroke-dashoffset:0"
       id="rect30309"
       width="126.82388"
       height="92.372086"
       x="36.531284"
       y="28.739685"
       inkscape:export-xdpi="200"
       inkscape:export-ydpi="200" />
    <path
       style="fill:none;stroke:#000000;stroke-width:0.264583px;stroke-linecap:butt;stroke-linejoin:miter;stroke-opacity:1"
       d="M 36.531285,51.4029 H 163.35517"
       id="path30872"
       inkscape:export-xdpi="200"
       inkscape:export-ydpi="200" />
    <path
       style="fill:none;stroke:#000000;stroke-width:0.264583px;stroke-linecap:butt;stroke-linejoin:miter;stroke-opacity:1"
       d="M 63.296468,28.739684 V 121.11177"
       id="path30874"
       inkscape:export-xdpi="200"
       inkscape:export-ydpi="200" />
    <circle
       style="fill:#ff5555;stroke:#000000;stroke-width:0.36105;stroke-miterlimit:4;stroke-dasharray:none;stroke-dashoffset:0;fill-opacity:0.62189764"
       id="path30876"
       sodipodi:type="arc"
       sodipodi:cx="-18.34955"
       sodipodi:cy="107.74654"
       sodipodi:rx="21.820568"
       sodipodi:ry="46.032463"
       sodipodi:start="3.7991454"
       sodipodi:end="3.797086"
       sodipodi:open="true"
       sodipodi:arc-type="arc"
       d="m -35.620319,79.612337 a 21.820568,46.032463 0 0 1 30.5982072,-8.31453 21.820568,46.032463 0 0 1 3.9570532,64.545393 21.820568,46.032463 0 0 1 -30.5941324,8.381 21.820568,46.032463 0 0 1 -3.988556,-64.536771"
       transform="rotate(-60)"
       inkscape:export-xdpi="200"
       inkscape:export-ydpi="200" />
    <path
       style="fill:none;stroke:#000000;stroke-width:0.265;stroke-linecap:butt;stroke-linejoin:miter;stroke-opacity:1;stroke-miterlimit:4;stroke-dasharray:none;marker-end:url(#Arrow1Lend)"
       d="M 70.433577,58.46949 116.76156,89.994154"
       id="path30878"
       inkscape:export-xdpi="200"
       inkscape:export-ydpi="200" />
    <text
       xml:space="preserve"
       style="font-size:4.9389px;line-height:1.25;font-family:sans-serif;stroke-width:0.264583"
       x="-115.10107"
       y="20.962799"
       id="text30902"
       transform="rotate(-90)"
       inkscape:export-xdpi="200"
       inkscape:export-ydpi="200"><tspan
         sodipodi:role="line"
         id="tspan30900"
         x="-115.10107"
         y="20.962799"
         style="stroke-width:0.264583">Cambio en LMA en los ultimos 30 años</tspan></text>
    <text
       xml:space="preserve"
       style="font-size:4.9389px;line-height:1.25;font-family:sans-serif;stroke-width:0.264583"
       x="56.257248"
       y="128.31136"
       id="text30906"
       inkscape:export-xdpi="200"
       inkscape:export-ydpi="200"><tspan
         sodipodi:role="line"
         id="tspan30904"
         x="56.257248"
         y="128.31136"
         style="stroke-width:0.264583">Cambio en el clima en los ultimos 30 años</tspan></text>
    <text
       xml:space="preserve"
       style="font-size:4.23333px;line-height:1.25;font-family:sans-serif;stroke-width:0.264583"
       x="32.026627"
       y="53.028179"
       id="text30910"
       inkscape:export-xdpi="200"
       inkscape:export-ydpi="200"><tspan
         sodipodi:role="line"
         id="tspan30908"
         x="32.026627"
         y="53.028179"
         style="font-size:4.23333px;stroke-width:0.264583">0</tspan></text>
    <text
       xml:space="preserve"
       style="font-size:4.9389px;line-height:1.25;font-family:sans-serif;stroke-width:0.264583"
       x="-101.38414"
       y="30.539543"
       id="text30914"
       transform="rotate(-90)"
       inkscape:export-xdpi="200"
       inkscape:export-ydpi="200"><tspan
         sodipodi:role="line"
         id="tspan30912"
         x="-101.38414"
         y="30.539543"
         style="stroke-width:0.264583">LMA ha disminuido</tspan></text>
    <path
       style="fill:none;stroke:#000000;stroke-width:0.264583px;stroke-linecap:butt;stroke-linejoin:miter;stroke-opacity:1;marker-end:url(#marker30920)"
       d="M 33.283498,58.367797 V 106.89158"
       id="path30916"
       inkscape:export-xdpi="200"
       inkscape:export-ydpi="200" />
    <path
       style="fill:none;stroke:#000000;stroke-width:0.264583px;stroke-linecap:butt;stroke-linejoin:miter;stroke-opacity:1;marker-end:url(#marker30950)"
       d="M 67.997826,133.14954 H 147.3788"
       id="path30946"
       inkscape:export-xdpi="200"
       inkscape:export-ydpi="200" />
    <text
       xml:space="preserve"
       style="font-size:4.9389px;line-height:1.25;font-family:sans-serif;stroke-width:0.264583"
       x="66.462456"
       y="140.39217"
       id="text30984"
       inkscape:export-xdpi="200"
       inkscape:export-ydpi="200"><tspan
         sodipodi:role="line"
         x="66.462456"
         y="140.39217"
         style="stroke-width:0.264583"
         id="tspan30986">Temperaturas más cálidas</tspan><tspan
         sodipodi:role="line"
         x="66.462456"
         y="146.5658"
         style="stroke-width:0.264583"
         id="tspan30990">Atmósfera más seca</tspan><tspan
         sodipodi:role="line"
         x="66.462456"
         y="152.73941"
         style="stroke-width:0.264583"
         id="tspan30992">Sequías severas más frecuentes</tspan></text>
  </g>
</svg>
