<?xml version="1.0" encoding="UTF-8" standalone="no"?>
<!-- Created with Inkscape (http://www.inkscape.org/) -->

<svg
   xmlns:dc="http://purl.org/dc/elements/1.1/"
   xmlns:cc="http://creativecommons.org/ns#"
   xmlns:rdf="http://www.w3.org/1999/02/22-rdf-syntax-ns#"
   xmlns:svg="http://www.w3.org/2000/svg"
   xmlns="http://www.w3.org/2000/svg"
   xmlns:sodipodi="http://sodipodi.sourceforge.net/DTD/sodipodi-0.dtd"
   xmlns:inkscape="http://www.inkscape.org/namespaces/inkscape"
   width="210mm"
   height="297mm"
   viewBox="0 0 744.09448819 1052.3622047"
   id="svg2"
   version="1.1"
   inkscape:version="0.91 r13725"
   sodipodi:docname="temporal_hypotheses.svg">
  <defs
     id="defs4" />
  <sodipodi:namedview
     id="base"
     pagecolor="#ffffff"
     bordercolor="#666666"
     borderopacity="1.0"
     inkscape:pageopacity="0.0"
     inkscape:pageshadow="2"
     inkscape:zoom="0.60732099"
     inkscape:cx="115.99133"
     inkscape:cy="799.14209"
     inkscape:document-units="px"
     inkscape:current-layer="layer1"
     showgrid="false"
     inkscape:window-width="1024"
     inkscape:window-height="550"
     inkscape:window-x="0"
     inkscape:window-y="28"
     inkscape:window-maximized="1" />
  <metadata
     id="metadata7">
    <rdf:RDF>
      <cc:Work
         rdf:about="">
        <dc:format>image/svg+xml</dc:format>
        <dc:type
           rdf:resource="http://purl.org/dc/dcmitype/StillImage" />
        <dc:title></dc:title>
      </cc:Work>
    </rdf:RDF>
  </metadata>
  <g
     inkscape:label="Layer 1"
     inkscape:groupmode="layer"
     id="layer1">
    <rect
       style="fill:none;stroke:#000000"
       id="rect3352"
       width="192.11031"
       height="150.19533"
       x="89.651474"
       y="81.331947"
       inkscape:export-xdpi="200.0853"
       inkscape:export-ydpi="200.0853" />
    <rect
       y="81.331947"
       x="309.65146"
       height="150.19533"
       width="192.11031"
       id="rect3354"
       style="fill:none;stroke:#000000"
       inkscape:export-xdpi="200.0853"
       inkscape:export-ydpi="200.0853" />
    <rect
       y="269.33194"
       x="89.651474"
       height="150.19533"
       width="192.11031"
       id="rect3356"
       style="fill:none;stroke:#000000"
       inkscape:export-xdpi="200.0853"
       inkscape:export-ydpi="200.0853" />
    <rect
       style="fill:none;stroke:#000000"
       id="rect3358"
       width="192.11031"
       height="150.19533"
       x="309.65146"
       y="269.33194"
       inkscape:export-xdpi="200.0853"
       inkscape:export-ydpi="200.0853" />
    <text
       xml:space="preserve"
       style="font-style:normal;font-weight:normal;font-size:40px;line-height:125%;font-family:sans-serif;letter-spacing:0px;word-spacing:0px;fill:#000000;fill-opacity:1;stroke:none;stroke-width:1px;stroke-linecap:butt;stroke-linejoin:miter;stroke-opacity:1"
       x="172.49559"
       y="250.15616"
       id="text3360"
       sodipodi:linespacing="125%"
       inkscape:export-xdpi="200.0853"
       inkscape:export-ydpi="200.0853"><tspan
         sodipodi:role="line"
         id="tspan3362"
         x="172.49559"
         y="250.15616"
         style="font-size:17.5px">Δ Climate (temp, drought, VPD)</tspan></text>
    <text
       sodipodi:linespacing="125%"
       id="text3364"
       y="82.035934"
       x="-183.94501"
       style="font-style:normal;font-weight:normal;font-size:40px;line-height:125%;font-family:sans-serif;letter-spacing:0px;word-spacing:0px;fill:#000000;fill-opacity:1;stroke:none;stroke-width:1px;stroke-linecap:butt;stroke-linejoin:miter;stroke-opacity:1"
       xml:space="preserve"
       transform="matrix(0,-1,1,0,0,0)"
       inkscape:export-xdpi="200.0853"
       inkscape:export-ydpi="200.0853"><tspan
         style="font-size:17.5px"
         y="82.035934"
         x="-183.94501"
         id="tspan3366"
         sodipodi:role="line">Δ LMA</tspan></text>
    <text
       transform="matrix(0,-1,1,0,0,0)"
       xml:space="preserve"
       style="font-style:normal;font-weight:normal;font-size:40px;line-height:125%;font-family:sans-serif;letter-spacing:0px;word-spacing:0px;fill:#000000;fill-opacity:1;stroke:none;stroke-width:1px;stroke-linecap:butt;stroke-linejoin:miter;stroke-opacity:1"
       x="-361.94501"
       y="82.035934"
       id="text3368"
       sodipodi:linespacing="125%"
       inkscape:export-xdpi="200.0853"
       inkscape:export-ydpi="200.0853"><tspan
         sodipodi:role="line"
         id="tspan3370"
         x="-361.94501"
         y="82.035934"
         style="font-size:17.5px">LMA</tspan></text>
    <text
       sodipodi:linespacing="125%"
       id="text3372"
       y="438.15616"
       x="172.49559"
       style="font-style:normal;font-weight:normal;font-size:40px;line-height:125%;font-family:sans-serif;letter-spacing:0px;word-spacing:0px;fill:#000000;fill-opacity:1;stroke:none;stroke-width:1px;stroke-linecap:butt;stroke-linejoin:miter;stroke-opacity:1"
       xml:space="preserve"
       inkscape:export-xdpi="200.0853"
       inkscape:export-ydpi="200.0853"><tspan
         style="font-size:17.5px"
         y="438.15616"
         x="172.49559"
         id="tspan3374"
         sodipodi:role="line">Climate (temp, drought, VPD)</tspan></text>
    <path
       style="fill:none;fill-rule:evenodd;stroke:#000000;stroke-width:1px;stroke-linecap:butt;stroke-linejoin:miter;stroke-opacity:1"
       d="M 112.93757,205.91257 231.69667,118.5897"
       id="path3376"
       inkscape:connector-curvature="0"
       inkscape:export-xdpi="200.0853"
       inkscape:export-ydpi="200.0853" />
    <path
       style="fill:none;fill-rule:evenodd;stroke:#000000;stroke-width:1px;stroke-linecap:butt;stroke-linejoin:miter;stroke-opacity:1"
       d="M 346.96285,207.07687 463.39334,109.27526"
       id="path3378"
       inkscape:connector-curvature="0"
       inkscape:export-xdpi="200.0853"
       inkscape:export-ydpi="200.0853" />
    <text
       xml:space="preserve"
       style="font-style:normal;font-weight:normal;font-size:40px;line-height:125%;font-family:sans-serif;text-align:center;letter-spacing:0px;word-spacing:0px;text-anchor:middle;fill:#000000;fill-opacity:1;stroke:none;stroke-width:1px;stroke-linecap:butt;stroke-linejoin:miter;stroke-opacity:1"
       x="183.81415"
       y="52.374462"
       id="text3380"
       sodipodi:linespacing="125%"
       inkscape:export-xdpi="200.0853"
       inkscape:export-ydpi="200.0853"><tspan
         sodipodi:role="line"
         id="tspan3382"
         x="183.81415"
         y="52.374462"
         style="font-size:17.5px;text-align:center;text-anchor:middle;-inkscape-font-specification:'sans-serif Bold';font-family:sans-serif;font-weight:bold;font-style:normal;font-stretch:normal;font-variant:normal">Spatial</tspan><tspan
         sodipodi:role="line"
         x="183.81415"
         y="74.249466"
         style="font-size:17.5px;text-align:center;text-anchor:middle;-inkscape-font-specification:'sans-serif Bold';font-family:sans-serif;font-weight:bold;font-style:normal;font-stretch:normal;font-variant:normal"
         id="tspan3384">(from trait data)</tspan></text>
    <text
       sodipodi:linespacing="125%"
       id="text3386"
       y="52.374462"
       x="405.81415"
       style="font-style:normal;font-weight:normal;font-size:40px;line-height:125%;font-family:sans-serif;text-align:center;letter-spacing:0px;word-spacing:0px;text-anchor:middle;fill:#000000;fill-opacity:1;stroke:none;stroke-width:1px;stroke-linecap:butt;stroke-linejoin:miter;stroke-opacity:1"
       xml:space="preserve"
       inkscape:export-xdpi="200.0853"
       inkscape:export-ydpi="200.0853"><tspan
         style="font-size:17.5px;text-align:center;text-anchor:middle;-inkscape-font-specification:'sans-serif Bold';font-family:sans-serif;font-weight:bold;font-style:normal;font-stretch:normal;font-variant:normal"
         y="52.374462"
         x="405.81415"
         id="tspan3388"
         sodipodi:role="line">Temporal</tspan><tspan
         id="tspan3390"
         style="font-size:17.5px;text-align:center;text-anchor:middle;-inkscape-font-specification:'sans-serif Bold';font-family:sans-serif;font-weight:bold;font-style:normal;font-stretch:normal;font-variant:normal"
         y="74.249466"
         x="405.81415"
         sodipodi:role="line">(from iLMA)</tspan></text>
    <path
       style="fill:none;fill-rule:evenodd;stroke:#000000;stroke-width:1px;stroke-linecap:butt;stroke-linejoin:miter;stroke-opacity:1"
       d="m 115.26618,314.19292 129.23784,80.33704"
       id="path3392"
       inkscape:connector-curvature="0"
       inkscape:export-xdpi="200.0853"
       inkscape:export-ydpi="200.0853" />
    <path
       style="fill:none;fill-rule:evenodd;stroke:#000000;stroke-width:1px;stroke-linecap:butt;stroke-linejoin:miter;stroke-opacity:1"
       d="m 334.1555,343.30054 55.88663,44.24359"
       id="path3394"
       inkscape:connector-curvature="0"
       inkscape:export-xdpi="200.0853"
       inkscape:export-ydpi="200.0853" />
    <path
       style="fill:none;fill-rule:evenodd;stroke:#000000;stroke-width:1px;stroke-linecap:butt;stroke-linejoin:miter;stroke-opacity:1"
       d="m 339.97702,328.16458 76.84412,53.55802"
       id="path3396"
       inkscape:connector-curvature="0"
       inkscape:export-xdpi="200.0853"
       inkscape:export-ydpi="200.0853" />
    <path
       style="fill:none;fill-rule:evenodd;stroke:#000000;stroke-width:1px;stroke-linecap:butt;stroke-linejoin:miter;stroke-opacity:1"
       d="m 353.94868,307.20709 37.25775,43.07928"
       id="path3398"
       inkscape:connector-curvature="0"
       inkscape:export-xdpi="200.0853"
       inkscape:export-ydpi="200.0853" />
    <path
       style="fill:none;fill-rule:evenodd;stroke:#000000;stroke-width:1px;stroke-linecap:butt;stroke-linejoin:miter;stroke-opacity:1"
       d="m 381.892,325.83597 64.03676,59.37955"
       id="path3400"
       inkscape:connector-curvature="0"
       inkscape:export-xdpi="200.0853"
       inkscape:export-ydpi="200.0853" />
    <path
       style="fill:none;fill-rule:evenodd;stroke:#000000;stroke-width:1px;stroke-linecap:butt;stroke-linejoin:miter;stroke-opacity:1"
       d="m 416.82114,335.15041 23.2861,25.61471"
       id="path3402"
       inkscape:connector-curvature="0"
       inkscape:export-xdpi="200.0853"
       inkscape:export-ydpi="200.0853" />
    <path
       style="fill:none;fill-rule:evenodd;stroke:#000000;stroke-width:1px;stroke-linecap:butt;stroke-linejoin:miter;stroke-opacity:1"
       d="m 335.3198,307.20709 33.76484,30.27193"
       id="path3404"
       inkscape:connector-curvature="0"
       inkscape:export-xdpi="200.0853"
       inkscape:export-ydpi="200.0853" />
    <path
       style="fill:none;fill-rule:evenodd;stroke:#000000;stroke-width:1px;stroke-linecap:butt;stroke-linejoin:miter;stroke-opacity:1"
       d="m 402.84948,359.60081 45.40789,40.75067"
       id="path3406"
       inkscape:connector-curvature="0"
       inkscape:export-xdpi="200.0853"
       inkscape:export-ydpi="200.0853" />
  </g>
</svg>
